<?xml version="1.0" encoding="UTF-8"?>
<svg width="144px" height="144px" viewBox="0 0 144 144" version="1.1" xmlns="http://www.w3.org/2000/svg" xmlns:xlink="http://www.w3.org/1999/xlink">
    <!-- Generator: Sketch 40.3 (33839) - http://www.bohemiancoding.com/sketch -->
    <title>LinkedIn</title>
    <g id="Page-1" stroke="none" stroke-width="1" fill="none" fill-rule="evenodd">
        <g id="social-linkedin">
            <path d="M133.345,0 L10.629,0 C4.765,0 0,4.648 0,10.376 L0,133.611 C0,139.345 4.765,144 10.629,144 L133.345,144 C139.219,144 144.004,139.345 144.004,133.611 L144.004,10.376 C144.004,4.648 139.219,0 133.345,0" id="Fill-1" fill="currentColor"></path>
            <path d="M32.035,19.825 C38.863,19.825 44.412,25.374 44.412,32.205 C44.412,39.042 38.863,44.591 32.035,44.591 C25.19,44.591 19.648,39.042 19.648,32.205 C19.648,25.374 25.19,19.825 32.035,19.825 L32.035,19.825 Z M21.351,122.707 L42.71,122.707 L42.71,53.985 L21.351,53.985 L21.351,122.707 Z" id="Fill-4" fill="#ffffff"></path>
            <path d="M76.592,53.985 L76.592,63.375 L76.878,63.375 C79.729,57.973 86.696,52.277 97.087,52.277 C118.715,52.277 122.708,66.511 122.708,85.013 L122.708,122.707 L101.364,122.707 L101.364,89.287 C101.364,81.318 101.218,71.067 90.266,71.067 C79.152,71.067 77.446,79.748 77.446,88.711 L77.446,122.707 L56.106,122.707 L56.106,53.985 L76.592,53.985 Z" id="Fill-5" fill="#ffffff"></path>
        </g>
    </g>
</svg>