<?xml version="1.0" encoding="UTF-8"?>
<svg width="17px" height="8px" viewBox="0 0 17 8" version="1.1" xmlns="http://www.w3.org/2000/svg" xmlns:xlink="http://www.w3.org/1999/xlink">
        <g class="svg-button-arrow" fill="white" id="Desktop" transform="translate(-433.000000, -1117.000000)">
            <g id="Group-5-Copy" transform="translate(316.000000, 1099.000000)">
                <path d="M133.911489,20.7595446 C133.852441,20.6970213 133.777092,20.6658236 133.6852,20.6658236 L121.40743,20.6658236 L121.40743,18.3323872 C121.40743,18.1934039 121.345001,18.0927785 121.220506,18.0302552 C121.09577,17.9747641 120.980935,17.9956052 120.876123,18.0927785 L117.098292,21.7803751 C117.032724,21.8499307 117,21.9332951 117,22.0304683 C117,22.1207372 117.032724,22.2006494 117.098292,22.2700771 L120.876123,25.9161194 C120.981056,26.0063882 121.095891,26.0239049 121.220506,25.9681582 C121.345001,25.9126672 121.40743,25.8120417 121.40743,25.666154 L121.40743,23.3327176 L133.685321,23.3327176 C133.777213,23.3327176 133.852562,23.301392 133.91161,23.2389966 C133.970536,23.1766011 134,23.0968168 134,22.9995157 L134,20.9992812 C134.00012,20.902108 133.970536,20.8220679 133.911489,20.7595446 L133.911489,20.7595446 Z" id="Shape" transform="translate(125.500000, 22.000000) rotate(-180.000000) translate(-125.500000, -22.000000) "></path>
            </g>
        </g>
</svg>
