<?xml version="1.0" encoding="UTF-8"?>
<svg width="34px" height="34px" viewBox="0 0 34 34" version="1.1" xmlns="http://www.w3.org/2000/svg" xmlns:xlink="http://www.w3.org/1999/xlink">
    <!-- Generator: Sketch 50 (54983) - http://www.bohemiancoding.com/sketch -->

    <g id="Layout" stroke="none" stroke-width="1" fill="none" fill-rule="evenodd">
        <g id="Homepage-V4" transform="translate(-818.000000, -903.000000)">
            <g id="Why-Paragon" transform="translate(198.000000, 790.000000)">
                <g id="Group-2" transform="translate(620.000000, 113.000000)">
                    <rect id="Rectangle-3" fill="#5E235A" x="0" y="0" width="34" height="34"></rect>
                    <path d="M23.9271084,16.0696585 C23.8784811,16.022766 23.816429,15.9993677 23.7407533,15.9993677 L13.629648,15.9993677 L13.629648,14.2492904 C13.629648,14.1450529 13.5782362,14.0695839 13.4757111,14.0226914 C13.3729871,13.9810731 13.2784174,13.9967039 13.1921014,14.0695839 L10.0809461,16.8352813 C10.0269489,16.887448 10,16.9499713 10,17.0228512 C10,17.0905529 10.0269489,17.150487 10.0809461,17.2025578 L13.1921014,19.9370895 C13.2785168,20.0047911 13.3730865,20.0179287 13.4757111,19.9761186 C13.5782362,19.9345004 13.629648,19.8590313 13.629648,19.7496155 L13.629648,17.9995382 L23.7408528,17.9995382 C23.8165285,17.9995382 23.8785805,17.976044 23.9272079,17.9292474 C23.9757357,17.8824508 23.9999997,17.8226126 23.9999997,17.7496368 L23.9999997,16.2494609 C24.0000991,16.176581 23.9757357,16.116551 23.9271084,16.0696585 L23.9271084,16.0696585 Z" id="Shape-Copy-4" fill="#FFFFFF" transform="translate(17.000000, 17.000000) rotate(-360.000000) translate(-17.000000, -17.000000) "></path>
                </g>
            </g>
        </g>
    </g>
</svg>
