<?xml version="1.0" encoding="UTF-8"?>
<svg width="28px" height="23px" viewBox="0 0 28 23" version="1.1" xmlns="http://www.w3.org/2000/svg" xmlns:xlink="http://www.w3.org/1999/xlink">
    <g id="Layout" stroke="none" stroke-width="1" fill="none" fill-rule="evenodd">
        <g id="Mobile" transform="translate(-262.000000, -22.000000)" fill="#FFFFFF">
            <g id="Group" transform="translate(262.000000, 22.000000)">
                <path d="M26.833613,18 L1.16683448,18 C0.850681626,18 0.577264228,18.1239333 0.346358537,18.3713204 C0.115452846,18.6184677 0,18.9116406 0,19.2501199 L0,21.7501199 C0,22.0885991 0.115452846,22.3815323 0.346358537,22.6289194 C0.577487974,22.8763065 0.850905371,23 1.16683448,23 L26.833613,23 C27.1495421,23 27.4229595,22.8763065 27.6538652,22.6289194 C27.8845472,22.3815323 28,22.0885991 28,21.7501199 L28,19.2501199 C28,18.9116406 27.8849946,18.6184677 27.6538652,18.3713204 C27.4229595,18.1239333 27.1497659,18 26.833613,18 L26.833613,18 Z" id="Shape"></path>
                <path d="M27.6538652,0.371098432 C27.4229595,0.123699477 27.1495421,0 26.833613,0 L1.16683448,0 C0.850681626,0 0.577264228,0.123699477 0.346358537,0.371098432 C0.115452846,0.618497387 0,0.911444599 0,1.24994007 L0,3.75005993 C0,4.0885554 0.115452846,4.38150261 0.346358537,4.62890157 C0.577487974,4.87630052 0.850905371,5 1.16683448,5 L26.833613,5 C27.1495421,5 27.4229595,4.87630052 27.6538652,4.62890157 C27.8845472,4.38150261 28,4.0885554 28,3.75005993 L28,1.24994007 C28,0.911444599 27.8847709,0.618497387 27.6538652,0.371098432 L27.6538652,0.371098432 Z" id="Shape"></path>
                <path d="M26.833613,9 L1.16683448,9 C0.850681626,9 0.577264228,9.12369355 0.346358537,9.37108064 C0.115452846,9.61846773 0,9.9114009 0,10.2498801 L0,12.7498801 C0,13.0883594 0.115452846,13.381772 0.346358537,13.6289194 C0.577487974,13.8760667 0.850905371,14 1.16683448,14 L26.833613,14 C27.1495421,14 27.4229595,13.8760667 27.6538652,13.6289194 C27.8845472,13.381772 28,13.0883594 28,12.7498801 L28,10.2498801 C28,9.9114009 27.8845472,9.61846773 27.6538652,9.37108064 C27.4229595,9.12369355 27.1497659,9 26.833613,9 L26.833613,9 Z" id="Shape"></path>
            </g>
        </g>
    </g>
</svg>
